<?xml version="1.0" encoding="UTF-8" standalone="no"?>
<!-- Created with Inkscape (http://www.inkscape.org/) -->

<svg
   xmlns:dc="http://purl.org/dc/elements/1.1/"
   xmlns:cc="http://creativecommons.org/ns#"
   xmlns:rdf="http://www.w3.org/1999/02/22-rdf-syntax-ns#"
   xmlns:svg="http://www.w3.org/2000/svg"
   xmlns="http://www.w3.org/2000/svg"
   xmlns:sodipodi="http://sodipodi.sourceforge.net/DTD/sodipodi-0.dtd"
   xmlns:inkscape="http://www.inkscape.org/namespaces/inkscape"
   id="svg2"
   sodipodi:docname="switch.svg"
   viewBox="0 0 362.0694 358.43"
   version="1.1"
   inkscape:version="0.48.5 r10040"
   width="100%"
   height="100%">
  <title
     id="title3085">based on &quot;switch II&quot;</title>
  <defs
     id="defs4">
    <linearGradient
       id="linearGradient3880"
       y2="286.85999"
       gradientUnits="userSpaceOnUse"
       x2="459.20001"
       gradientTransform="translate(11.251,0)"
       y1="600.85999"
       x1="455.25"
       inkscape:collect="always">
      <stop
         id="stop3850"
         style="stop-color:#d8c885"
         offset="0" />
      <stop
         id="stop3852"
         style="stop-color:#e2d49c"
         offset="1" />
    </linearGradient>
    <linearGradient
       id="linearGradient3891"
       y2="604.06"
       gradientUnits="userSpaceOnUse"
       x2="384"
       gradientTransform="translate(11.251,0)"
       y1="314.35999"
       x1="218"
       inkscape:collect="always">
      <stop
         id="stop3666"
         style="stop-color:#f2ebd2"
         offset="0" />
      <stop
         id="stop3668"
         style="stop-color:#e2d49c"
         offset="1" />
    </linearGradient>
    <radialGradient
       id="radialGradient3945"
       gradientUnits="userSpaceOnUse"
       cy="423.35999"
       cx="300.25"
       gradientTransform="matrix(1,0,0,0.014953,0,417.03)"
       r="133.75"
       inkscape:collect="always">
      <stop
         id="stop3941"
         style="stop-color:#f8f5e7"
         offset="0" />
      <stop
         id="stop3943"
         style="stop-color:#f8f5e7;stop-opacity:0"
         offset="1" />
    </radialGradient>
    <linearGradient
       id="linearGradient3970"
       y2="349.35999"
       gradientUnits="userSpaceOnUse"
       x2="282.26001"
       y1="463.45001"
       x1="281.26001"
       inkscape:collect="always">
      <stop
         id="stop3966"
         style="stop-color:#2e3436"
         offset="0" />
      <stop
         id="stop3968"
         style="stop-color:#2e3436;stop-opacity:0"
         offset="1" />
    </linearGradient>
  </defs>
  <sodipodi:namedview
     id="base"
     bordercolor="#666666"
     inkscape:pageshadow="2"
     inkscape:guide-bbox="true"
     pagecolor="#ffffff"
     inkscape:window-height="702"
     inkscape:window-maximized="1"
     inkscape:zoom="0.5"
     inkscape:window-x="0"
     showgrid="false"
     borderopacity="1.0"
     inkscape:current-layer="layer1"
     inkscape:cx="163.34702"
     inkscape:cy="220.92982"
     showguides="true"
     inkscape:window-y="27"
     inkscape:window-width="1366"
     inkscape:pageopacity="0.0"
     inkscape:document-units="px"
     fit-margin-top="0"
     fit-margin-left="0"
     fit-margin-right="0"
     fit-margin-bottom="0" />
  <g
     id="layer1"
     inkscape:label="Capa 1"
     inkscape:groupmode="layer"
     transform="translate(-119.008,-252.63)">
    <path
       id="rect3920"
       sodipodi:nodetypes="ccccccc"
       style="opacity:0.18999999;fill:#2e3436"
       d="m 129.65,259.63 341.43,-6.7175 9.9974,6.7175 v 351.43 h -351.43 l -10,-9.6983 10,-341.73 z"
       inkscape:connector-curvature="0" />
    <rect
       id="rect2816"
       style="fill:url(#linearGradient3891)"
       height="351.42999"
       width="351.42999"
       y="252.63"
       x="119.65" />
    <path
       id="rect3835"
       sodipodi:nodetypes="cccccccc"
       style="fill:#f8f5e7"
       d="m 119.55,252.64 v 351.41 h 8 v -7.0636 -337.34 h 343.44 v -7 H 119.55 z"
       inkscape:connector-curvature="0" />
    <g
       id="g3909"
       transform="translate(0,9.4688)">
      <path
         id="rect3893"
         style="opacity:0.75;fill:#2e3436"
         d="m 161.95,280.36 v 4.8257 130.17 130.9 2.0453 2.7804 h 275.1 v -2.7804 -2.0453 -132.95 -132.95 h -275.1 z"
         inkscape:connector-curvature="0" />
      <rect
         id="rect3856"
         style="fill:#e5d8a6"
         height="132"
         width="269"
         y="283.35999"
         x="166" />
      <rect
         id="rect3860"
         style="fill:#ece2bd"
         height="132"
         width="269"
         y="413.35999"
         x="166" />
      <rect
         id="rect3862"
         style="fill:#f8f5e7"
         height="4.7207999"
         width="269"
         y="283.35999"
         x="166" />
      <rect
         id="rect3864"
         style="fill:#d8c885"
         height="4.7207999"
         width="269"
         y="543.35999"
         x="166" />
      <path
         id="rect3866"
         style="opacity:0.2;fill:#2e3436"
         d="M 434.66,285.14 V 548.2 H 166.69 v 9.1875 h 277.88 v -0.625 l 1.4062,0.625 -9.875,-144.97 11.312,-120.91 -12.75,-6.375 z"
         inkscape:connector-curvature="0" />
      <rect
         id="rect3962"
         style="opacity:0.2;fill:url(#linearGradient3970)"
         height="132"
         width="269"
         y="283.35999"
         x="166" />
    </g>
    <path
       id="path3918"
       sodipodi:nodetypes="cccccccc"
       style="fill:#f8f5e7"
       d="m 119.55,252.64 v 351.41 h 8 v -7.0636 -337.34 h 343.44 v -7 H 119.55 z"
       inkscape:connector-curvature="0" />
    <path
       id="path3846"
       sodipodi:nodetypes="ccccccc"
       style="fill:url(#linearGradient3880)"
       d="M 470.45,604.05 V 252.64 l -8,7.0527 v 337.35 H 127.78 l -8.772,7 h 351.44 z"
       inkscape:connector-curvature="0" />
    <rect
       id="rect3925"
       style="opacity:0.93061003;fill:url(#radialGradient3945)"
       height="4"
       width="267.5"
       y="421.35999"
       x="166.5" />
  </g>
  <metadata
     id="metadata3087">
    <rdf:RDF>
      <cc:Work>
        <dc:format>image/svg+xml</dc:format>
        <dc:type
           rdf:resource="http://purl.org/dc/dcmitype/StillImage" />
        <cc:license
           rdf:resource="http://creativecommons.org/licenses/publicdomain/" />
        <dc:publisher>
          <cc:Agent
             rdf:about="http://openclipart.org/">
            <dc:title>Openclipart</dc:title>
          </cc:Agent>
        </dc:publisher>
        <dc:title>based on &quot;switch II&quot;</dc:title>
        <dc:date>2010-04-02T21:54:09</dc:date>
        <dc:description />
        <dc:source>https://openclipart.org/detail/36271/switch-ii-by-rg1024</dc:source>
        <dc:creator>
          <cc:Agent>
            <dc:title>rg1024, modified by spaetz</dc:title>
          </cc:Agent>
        </dc:creator>
        <dc:subject>
          <rdf:Bag>
            <rdf:li>electrical</rdf:li>
            <rdf:li>house</rdf:li>
            <rdf:li>interruptor</rdf:li>
            <rdf:li>light off</rdf:li>
            <rdf:li>light on</rdf:li>
            <rdf:li>off</rdf:li>
            <rdf:li>on</rdf:li>
            <rdf:li>switch</rdf:li>
          </rdf:Bag>
        </dc:subject>
        <dc:rights>
          <cc:Agent>
            <dc:title>Public Domain</dc:title>
          </cc:Agent>
        </dc:rights>
      </cc:Work>
      <cc:License
         rdf:about="http://creativecommons.org/licenses/publicdomain/">
        <cc:permits
           rdf:resource="http://creativecommons.org/ns#Reproduction" />
        <cc:permits
           rdf:resource="http://creativecommons.org/ns#Distribution" />
        <cc:permits
           rdf:resource="http://creativecommons.org/ns#DerivativeWorks" />
      </cc:License>
    </rdf:RDF>
  </metadata>
</svg>
